<?xml version="1.0" encoding="utf-8"?>
<!-- Generator: Adobe Illustrator 16.0.0, SVG Export Plug-In . SVG Version: 6.00 Build 0)  -->
<!DOCTYPE svg PUBLIC "-//W3C//DTD SVG 1.1//EN" "http://www.w3.org/Graphics/SVG/1.1/DTD/svg11.dtd">
<svg version="1.1" id="Layer_1" xmlns="http://www.w3.org/2000/svg" xmlns:xlink="http://www.w3.org/1999/xlink" x="0px" y="0px"
	 width="500px" height="149.453px" viewBox="0 174.219 500 149.453" enable-background="new 0 174.219 500 149.453"
	 xml:space="preserve">
<path fill="#FFFFFF" d="M0.026,174.219c0,0,226.823,87.916,499.948,0v149.453H0.026V174.219z"/>
</svg>
