<?xml version="1.0" encoding="utf-8"?>
<!-- Generator: Adobe Illustrator 22.1.0, SVG Export Plug-In . SVG Version: 6.00 Build 0)  -->
<svg version="1.1" id="Layer_1" xmlns="http://www.w3.org/2000/svg" xmlns:xlink="http://www.w3.org/1999/xlink" x="0px" y="0px"
	 viewBox="0 0 500 467" style="enable-background:new 0 0 500 467;" xml:space="preserve">
<style type="text/css">
	.st0{fill:none;}
	.st1{fill:#FFFFFF;}
</style>
<g>
	<path class="st0" d="M247.2,385.4c0-2.9-0.5-5.6-1.5-8c-3.1-7.4-9.9-11.1-20.5-11.1v-0.1h-18.5v40.9h18.5c9.9,0,16.6-4.4,20.2-13.2
		C246.6,391.1,247.2,388.3,247.2,385.4z"/>
	<path class="st0" d="M405.4,276.5c18.2,0,33.1-14.8,33.1-33.1V64c0-18.2-14.8-33.1-33.1-33.1H119.1C100.9,30.9,86,45.8,86,64v179.4
		c0,18.2,14.8,33.1,33.1,33.1h133.3h31.4h0l7.3,25h0l21.2,72.7l2.7,9.6l2.8-9.6l21.3-72.7h0l2.9-9.8l4.4-15.1h0h30.1H405.4z
		 M356.6,241.6H168.2L168,124.1l94.7-73.2l55.1,42.2L299.1,110l-36.8-28L192,136.6v81.2h140.8v-73.4l23.7-19.6V241.6z M275.2,179.9
		l8.2,24h-31.9h-4.2l4.2-12.2l4.1-11.9l3.3-9.7c-7.4-2.7-12.7-9.7-12.7-18c0-10.6,8.6-19.1,19.1-19.1c10.6,0,19.1,8.6,19.1,19.1
		c0,8.3-5.3,15.4-12.7,18L275.2,179.9z"/>
	<path class="st1" d="M463.5,243.5V64c0-32-26-58.1-58.1-58.1H119.1C87.1,6,61.1,32,61.1,64v179.4c0,32,26,58.1,58.1,58.1H261
		l53.8,156.6l53.2-156.6h37.4C437.5,301.5,463.5,275.5,463.5,243.5z M346.3,276.5L346.3,276.5l-4.4,15.1l-2.9,9.8h0l-21.3,72.7
		l-2.8,9.6l-2.7-9.6l-21.2-72.7h0l-7.3-25h0h-31.4H119.1c-18.2,0-33.1-14.8-33.1-33.1V64c0-18.2,14.8-33.1,33.1-33.1h286.3
		c18.2,0,33.1,14.8,33.1,33.1v179.4c0,18.2-14.8,33.1-33.1,33.1h-29H346.3z"/>
	<path class="st1" d="M284.6,152.1c0-10.6-8.6-19.1-19.1-19.1c-10.6,0-19.1,8.6-19.1,19.1c0,8.3,5.3,15.3,12.7,18l-3.3,9.7
		l-4.1,11.9l-4.2,12.2h4.2h31.9l-8.2-24l-3.3-9.7C279.3,167.5,284.6,160.4,284.6,152.1z"/>
	<polygon class="st1" points="332.8,217.8 192,217.8 192,136.6 262.3,81.9 299.1,110 317.8,93.2 262.7,50.9 168,124.1 168.2,241.6 
		356.6,241.6 356.6,124.9 332.8,144.4 	"/>
	<path class="st1" d="M81.4,343.5H60.8v70.7c0,6.7-1.8,12.3-5.5,16.9c-3.3,4.1-7,6.2-11.3,6.2c-4.2,0-7.9-1.9-10.9-5.7
		c-3.5-4.2-5.5-9.5-5.8-15.9l-20.5,1.1c0.6,11.9,4.3,22,11.1,30.2c7.2,8.6,15.9,13,26.1,13c10.5,0,19.4-4.7,26.8-14
		c7.1-9,10.6-19.6,10.6-31.8h-0.1V343.5z"/>
	<polygon class="st1" points="101.3,457.4 168.4,457.4 168.4,434.7 121.9,434.7 121.9,409.1 164.1,409.1 164.1,386.3 121.9,386.3 
		121.9,366.3 168.4,366.3 168.4,343.5 101.3,343.5 	"/>
	<path class="st1" d="M241.2,425.9c11-4.6,18.6-12.1,22.9-22.6c2.3-5.6,3.5-11.5,3.5-17.7c0.1-6.3-1-12.2-3.3-17.8
		c-3-7.3-7.7-13.1-14-17.4c-6.9-4.7-15.3-7-25.1-7v0.1h-39.1v113.8h20.6v-27.7h12.4l21.9,27.7h27.3l-19.8-25.1
		C246.1,429.4,243.6,427.3,241.2,425.9z M225.2,407.2h-18.5v-40.9h18.5v0.1c10.6,0,17.4,3.7,20.5,11.1c1,2.5,1.5,5.1,1.5,8
		c0,2.9-0.6,5.7-1.8,8.6C241.8,402.8,235.1,407.2,225.2,407.2z"/>
	<rect x="373.9" y="343.7" class="st1" width="20.6" height="113.9"/>
	<path class="st1" d="M481.6,399.6c-4.5-3.4-12.9-6.7-25.1-10c-6.9-1.9-11.7-3.5-14.3-4.9c-4.4-2.3-6.5-5.2-6.5-8.7
		c0-5,3.2-8.6,9.6-10.8c2.8-0.9,5.8-1.4,8.8-1.4v0.1c3.2,0,6.1,0.4,8.8,1.3c6.4,2.1,9.6,5.7,9.6,10.8H493c0-8.2-2.3-15.2-7-21.1
		c-4.3-5.2-10-9.1-17.3-11.5c-4.7-1.6-9.6-2.4-14.7-2.4c-5.2,0-10,0.8-14.6,2.4c-7.3,2.4-13.1,6.2-17.3,11.5c-4.7,5.8-7,12.8-7,21.1
		c0,11.5,3.8,20,11.4,25.6c4.6,3.4,13,6.8,25.1,10.1c7,1.9,11.7,3.5,14.3,4.9c4.3,2.3,6.5,5.1,6.5,8.6c0,5.1-3.2,8.7-9.6,10.8
		c-2.7,0.9-5.6,1.3-8.8,1.3c-3,0-6-0.4-8.8-1.3c-6.4-2.1-9.6-5.8-9.6-10.8H415c0,8.2,2.3,15.2,7,21.1c4.3,5.3,10,9.1,17.3,11.5
		c4.6,1.5,9.5,2.3,14.6,2.3v0.1c5.1,0,10-0.8,14.7-2.4c7.2-2.4,13-6.3,17.3-11.5c4.7-5.8,7-12.8,7-21.1
		C493,413.8,489.2,405.3,481.6,399.6z"/>
</g>
</svg>
