<?xml version="1.0" encoding="utf-8"?>
<!-- Generator: Adobe Illustrator 16.0.0, SVG Export Plug-In . SVG Version: 6.00 Build 0)  -->
<!DOCTYPE svg PUBLIC "-//W3C//DTD SVG 1.1//EN" "http://www.w3.org/Graphics/SVG/1.1/DTD/svg11.dtd">
<svg version="1.1" id="Layer_1" xmlns="http://www.w3.org/2000/svg" xmlns:xlink="http://www.w3.org/1999/xlink" x="0px" y="0px"
	 width="64px" height="64px" viewBox="0 0 64 64" enable-background="new 0 0 64 64" xml:space="preserve">
<g>
	<path fill="#04B8B9" d="M32.013,64c-0.963,0-1.863-0.475-2.4-1.25L13.288,39.3c-3.525-4.225-5.462-9.625-5.462-15.225
		C7.825,10.8,18.675,0,32,0s24.162,10.8,24.162,24.075c0,4.075-1.05,8.112-3.037,11.688c-0.075,0.188-0.175,0.362-0.287,0.537
		c-0.65,1.05-1.263,1.925-1.913,2.737l-16.5,23.7C33.875,63.525,32.975,64,32.013,64z M32,2.638
		c-11.875,0-21.538,9.612-21.538,21.438c0,5,1.738,9.813,4.875,13.575c0.025,0.024,0.05,0.063,0.075,0.087l16.362,23.5
		c0.05,0.075,0.15,0.125,0.238,0.125c0.1,0,0.188-0.05,0.25-0.125L48.8,37.487c0.013-0.024,0.038-0.05,0.05-0.075
		c0.601-0.75,1.163-1.55,1.775-2.537c0.013-0.025,0.025-0.05,0.037-0.063c0.013-0.013,0.013-0.025,0.025-0.037
		c0.025-0.075,0.063-0.15,0.1-0.226c1.801-3.2,2.75-6.813,2.75-10.475C53.537,12.25,43.875,2.638,32,2.638z"/>
	<path fill="#04B8B9" d="M31.6,37.575c-7.475,0-13.55-6.063-13.55-13.5c0-7.45,6.075-13.5,13.55-13.5s13.55,6.063,13.55,13.5
		S39.075,37.575,31.6,37.575z M31.6,13.212c-6.025,0-10.913,4.875-10.913,10.863c0,5.987,4.9,10.862,10.913,10.862
		c6.025,0,10.913-4.875,10.913-10.862C42.513,18.087,37.625,13.212,31.6,13.212z"/>
</g>
</svg>
