<?xml version="1.0" encoding="utf-8"?>
<!-- Generator: Adobe Illustrator 16.0.0, SVG Export Plug-In . SVG Version: 6.00 Build 0)  -->
<!DOCTYPE svg PUBLIC "-//W3C//DTD SVG 1.1//EN" "http://www.w3.org/Graphics/SVG/1.1/DTD/svg11.dtd">
<svg version="1.1" id="Layer_1" xmlns="http://www.w3.org/2000/svg" xmlns:xlink="http://www.w3.org/1999/xlink" x="0px" y="0px"
	 width="310px" height="486px" viewBox="0 0 310 486" enable-background="new 0 0 310 486" xml:space="preserve">
<g>
	<defs>
		<rect id="SVGID_1_" width="310" height="486"/>
	</defs>
	<clipPath id="SVGID_2_">
		<use xlink:href="#SVGID_1_"  overflow="visible"/>
	</clipPath>
	<path clip-path="url(#SVGID_2_)" d="M267,3H43C20.92,3.026,3.026,20.92,3,43v400c0.026,22.08,17.92,39.974,40,40h224
		c22.08-0.026,39.974-17.92,40-40V43C306.974,20.92,289.08,3.026,267,3 M291,443c0,13.255-10.745,24-24,24H43
		c-13.255,0-24-10.745-24-24v-8h272V443z M291,419H19V67h272V419z M291,51H19v-8c0-13.255,10.745-24,24-24h224
		c13.255,0,24,10.745,24,24V51z"/>
	<path clip-path="url(#SVGID_2_)" fill="none" stroke="#818181" stroke-width="6" stroke-miterlimit="10" d="M267,3H43
		C20.92,3.026,3.026,20.92,3,43v400c0.026,22.08,17.92,39.974,40,40h224c22.08-0.026,39.974-17.92,40-40V43
		C306.974,20.92,289.08,3.026,267,3z M291,443c0,13.255-10.745,24-24,24H43c-13.255,0-24-10.745-24-24v-8h272V443z M291,419H19V67
		h272V419z M291,51H19v-8c0-13.255,10.745-24,24-24h224c13.255,0,24,10.745,24,24V51z"/>
	<path clip-path="url(#SVGID_2_)" d="M139,27h-16c-4.418,0-8,3.582-8,8s3.582,8,8,8h16c4.418,0,8-3.582,8-8S143.418,27,139,27"/>
	<path clip-path="url(#SVGID_2_)" fill="none" stroke="#818181" stroke-width="6" stroke-miterlimit="10" d="M139,27h-16
		c-4.418,0-8,3.582-8,8s3.582,8,8,8h16c4.418,0,8-3.582,8-8S143.418,27,139,27z"/>
	<path clip-path="url(#SVGID_2_)" d="M195,27h-32c-4.418,0-8,3.582-8,8s3.582,8,8,8h32c4.418,0,8-3.582,8-8S199.418,27,195,27"/>
	<path clip-path="url(#SVGID_2_)" fill="none" stroke="#818181" stroke-width="6" stroke-miterlimit="10" d="M195,27h-32
		c-4.418,0-8,3.582-8,8s3.582,8,8,8h32c4.418,0,8-3.582,8-8S199.418,27,195,27z"/>
	<path clip-path="url(#SVGID_2_)" d="M179,443h-48c-4.418,0-8,3.582-8,8s3.582,8,8,8h48c4.418,0,8-3.582,8-8S183.418,443,179,443"/>
	<path clip-path="url(#SVGID_2_)" fill="none" stroke="#818181" stroke-width="6" stroke-miterlimit="10" d="M179,443h-48
		c-4.418,0-8,3.582-8,8s3.582,8,8,8h48c4.418,0,8-3.582,8-8S183.418,443,179,443z"/>
</g>
</svg>
