<?xml version="1.0" encoding="utf-8"?>
<!-- Generator: Adobe Illustrator 16.0.0, SVG Export Plug-In . SVG Version: 6.00 Build 0)  -->
<!DOCTYPE svg PUBLIC "-//W3C//DTD SVG 1.1//EN" "http://www.w3.org/Graphics/SVG/1.1/DTD/svg11.dtd">
<svg version="1.1" id="Layer_1" xmlns="http://www.w3.org/2000/svg" xmlns:xlink="http://www.w3.org/1999/xlink" x="0px" y="0px"
	 width="512px" height="512px" viewBox="0 0 512 512" enable-background="new 0 0 512 512" xml:space="preserve">
<path fill="#04b8b9"  d="M316.01,199.02L256.134,14.817L196.239,199.02H1.134l158.102,113.324L98.53,496.487l157.604-114.232
	l157.585,114.232l-60.687-184.144L511.134,199.02H316.01z M335.084,318.257l42.407,128.63l-110.271-79.924l-11.087-8.033
	l-11.086,8.033l-110.291,79.923l42.408-128.63l4.353-13.18l-11.289-8.08L59.903,217.909h136.336h13.724l4.242-13.051l41.929-128.957
	l41.91,128.957l4.242,13.051h13.724h136.336L342.02,296.997l-11.271,8.08L335.084,318.257z"/>
</svg>
