<?xml version="1.0" encoding="utf-8"?>
<!-- Generator: Adobe Illustrator 16.0.0, SVG Export Plug-In . SVG Version: 6.00 Build 0)  -->
<!DOCTYPE svg PUBLIC "-//W3C//DTD SVG 1.1//EN" "http://www.w3.org/Graphics/SVG/1.1/DTD/svg11.dtd">
<svg version="1.1" id="Isolation_Mode" xmlns="http://www.w3.org/2000/svg" xmlns:xlink="http://www.w3.org/1999/xlink" x="0px"
	 y="0px" width="518px" height="487px" viewBox="0 0 518 487" enable-background="new 0 0 518 487" xml:space="preserve">
<path fill="#04b8b9" fill-rule="evenodd" clip-rule="evenodd" d="M19.708,246.957c-3.36,0-7.305,0-11.513,0c0-2.669,0-4.939,0-7.772
	c3.993,0,8.063,0,12.414,0c0.817-8.572,1.457-16.636,2.373-24.667c4.603-40.327,18.949-76.959,42.886-109.632
	c36.796-50.224,85.882-82.132,147.077-93.371c71.705-13.168,136.727,3.478,193.431,49.58c44.556,36.225,71.599,83.296,82.241,139.64
	c2.059,10.894,2.54,22.106,3.357,33.2c0.273,3.705,1.03,5.485,5.157,5.117c4.098-0.366,8.254-0.08,12.659-0.08
	c0,2.727,0,4.996,0,8.053c-4.165,0-8.448,0.284-12.675-0.081c-4.121-0.356-4.992,1.363-5.108,5.117
	c-1.422,46.089-15.402,88.192-41.989,125.724c-37.592,53.068-88.57,85.892-152.761,97.272
	C174.66,496.792,56.149,418.806,27.548,297.431C23.722,281.19,22.348,264.373,19.708,246.957z M38.457,247.066
	c0.394,29.095,6.254,56.469,17.648,82.592c17.563,40.271,44.789,72.548,81.585,96.573c73.5,47.992,170.345,47.305,242.014-2.666
	c61.031-42.553,92.187-101.792,95.806-176.636c-6.544,0-11.966,0-17.428,0c0-2.886,0-5.258,0-8.148c5.811,0,11.224,0,16.608,0
	c0.924-63.323-34.059-145.923-116.231-189.256C279.408,7.84,182.344,18.46,114.605,77.111
	c-49.019,42.442-74.013,96.653-76.363,162.136c7.962,0,14.877,0,21.749,0c0,2.781,0,5.042,0,7.819
	C52.775,247.066,45.854,247.066,38.457,247.066z"/>
<path fill="#04b8b9" fill-rule="evenodd" clip-rule="evenodd" d="M261.002,405.532c0,14.865,0,29.309,0,44.086c-2.796,0-5.184,0-8.231,0
	c0-10.512,0.031-20.953-0.016-31.395c-0.018-3.985,1.251-9.217-0.764-11.588c-1.864-2.193-7.328-1.371-11.215-1.793
	c-66.933-7.263-120.944-52.213-140.088-116.6c-26.781-90.075,30.926-186.066,122.881-204.19c7.958-1.568,16.097-2.379,24.193-3.019
	c3.789-0.3,5.175-1.3,5.102-5.291c-0.239-12.982-0.09-25.971-0.09-39.33c2.688,0,5.086,0,8.079,0c0,14.501,0,29.07,0,43.978
	c50.839,2.452,92.33,22.88,123.712,62.325c23.102,29.037,34.591,62.526,34.572,99.789c-0.022,43.994-15.311,81.968-45.795,113.54
	C342.84,387.634,305.092,403.591,261.002,405.532z M111.317,242.964c0.473,82.871,67.68,144.635,143.916,145.36
	c78.974,0.751,144.782-62.399,146.845-141.296c2.187-83.583-65.617-148.891-144.276-149.391
	C180.415,97.146,111.924,159.081,111.317,242.964z"/>
<path fill="#04b8b9" fill-rule="evenodd" clip-rule="evenodd" d="M342.322,238.927c5.912,0,11.508,0,17.371,0c0,2.749,0,5.018,0,7.958
	c-5.584,0-11.304,0-16.808,0c-6.864,48.012-33.705,75.206-81.925,82.121c0,2.381,0,5.15,0,7.92c0,2.809,0,5.618,0,8.773
	c-2.704,0-5.091,0-8.178,0c0-4.466-0.096-8.905,0.035-13.339c0.082-2.77-0.584-4.127-3.783-4.421
	c-41.104-3.779-72.529-34.877-77.145-76.131c-0.165-1.471-0.543-2.918-0.889-4.727c-5.613,0-11.061,0-16.917,0
	c0-2.75,0-5.117,0-7.934c5.474,0,10.915,0,16.746,0c1.029-5.646,1.701-11.03,3.013-16.252c9.116-36.291,38.181-61.341,75.215-64.851
	c2.759-0.261,3.833-1.198,3.753-3.944c-0.128-4.475-0.035-8.956-0.035-13.793c2.755,0,5.151,0,8.045,0c0,5.551,0,11.143,0,17.156
	c22.008,1.731,40.859,9.679,56.31,25.123C332.5,197.943,340.424,216.643,342.322,238.927z M261.039,293.818
	c0,5.835,0,11.413,0,16.943c31.316,0.854,67.505-35.77,63.057-63.831c-5.478,0-11.059,0-16.598,0c0-2.95,0-5.323,0-8.228
	c5.955,0,11.531,0,17.102,0c-1.628-37.282-34.664-63.816-63.722-63.076c0,5.411,0,10.841,0,16.417c-2.856,0-5.238,0-8.175,0
	c0-5.774,0-11.201,0-16.616c-34.455,0.18-63.806,32.151-63.354,63.498c5.39,0,10.805,0,16.429,0c0,2.922,0,5.3,0,8.199
	c-5.717,0-11.131,0-16.529,0c-0.033,32.494,30.113,63.499,63.658,63.363c0-5.532,0-11.083,0-16.671
	C255.894,293.818,258.166,293.818,261.039,293.818z"/>
</svg>
