<?xml version="1.0" encoding="UTF-8" standalone="no"?>
<svg xmlns="http://www.w3.org/2000/svg" xmlns:xlink="http://www.w3.org/1999/xlink" viewBox="0 0 253.87 212.85">
    <defs>
        <style>.cls-1{isolation:isolate;}.cls-2{fill:url(#linear-gradient);}.cls-3{fill:#57d9a3;}.cls-4{fill:#fff;}.cls-5,.cls-9{fill:#ebecf0;}.cls-6{fill:#c1c7d0;}.cls-7{fill:url(#linear-gradient-2);}.cls-8{fill:none;}.cls-15,.cls-9{mix-blend-mode:multiply;}.cls-10{fill:#a5adba;}.cls-11{fill:url(#linear-gradient-3);}.cls-12{fill:url(#linear-gradient-4);}.cls-13{fill:#5e6c84;}.cls-14{fill:url(#linear-gradient-5);}.cls-15{fill:#dfe1e5;}.cls-16{fill:url(#linear-gradient-6);}.cls-17{fill:url(#linear-gradient-7);}.cls-18{fill:url(#linear-gradient-8);}.cls-19{fill:#7a869a;}.cls-20{fill:#253858;}.cls-21{fill:#abf5d1;}</style>
        <linearGradient id="linear-gradient" x1="150.51" y1="952.24" x2="150.51" y2="893.19" gradientTransform="translate(0 -867)" gradientUnits="userSpaceOnUse">
            <stop offset="0" stop-color="#abf5d1" stop-opacity="0" />
            <stop offset="0.34" stop-color="#96f4ca" stop-opacity="0.25" />
            <stop offset="0.64" stop-color="#86f3c5" stop-opacity="0.44" />
            <stop offset="0.87" stop-color="#7df2c1" stop-opacity="0.56" />
            <stop offset="1" stop-color="#79f2c0" stop-opacity="0.6" />
        </linearGradient>
        <linearGradient id="linear-gradient-2" x1="65.5" y1="1007.95" x2="236.55" y2="1007.95" gradientTransform="translate(0 -867)" gradientUnits="userSpaceOnUse">
            <stop offset="0" stop-color="#0065ff" />
            <stop offset="1" stop-color="#4c9aff" />
        </linearGradient>
        <linearGradient id="linear-gradient-3" x1="4.98" y1="-7041.49" x2="83.7" y2="-6962.75" gradientTransform="matrix(1, 0, 0, -1, 0, -6848.27)" gradientUnits="userSpaceOnUse">
            <stop offset="0" stop-color="#c1c7d0" />
            <stop offset="1" stop-color="#fff" />
        </linearGradient>
        <linearGradient id="linear-gradient-4" x1="11.88" y1="1048.64" x2="76.8" y2="983.72" gradientTransform="translate(0 -867)" gradientUnits="userSpaceOnUse">
            <stop offset="0" stop-color="#0052cc" />
            <stop offset="1" stop-color="#2684ff" />
        </linearGradient>
        <linearGradient id="linear-gradient-5" x1="28.98" y1="1036.22" x2="59.18" y2="1006.02" gradientTransform="translate(0 -867)" gradientUnits="userSpaceOnUse">
            <stop offset="0" stop-color="#57d9a3" />
            <stop offset="0.84" stop-color="#e3fcef" />
        </linearGradient>
        <linearGradient id="linear-gradient-6" x1="153.99" y1="1050.9" x2="153.99" y2="970.58" gradientTransform="translate(0 -867)" gradientUnits="userSpaceOnUse">
            <stop offset="0.39" stop-color="#c1c7d0" />
            <stop offset="0.5" stop-color="#d4d9df" />
            <stop offset="0.7" stop-color="#f3f4f6" />
            <stop offset="0.81" stop-color="#fff" />
        </linearGradient>
        <linearGradient id="linear-gradient-7" x1="116.35" y1="1034.44" x2="182.51" y2="968.28" gradientTransform="translate(0 -867)" xlink:href="#linear-gradient-3" />
        <linearGradient id="linear-gradient-8" x1="120.62" y1="1030.83" x2="178.28" y2="973.16" gradientTransform="translate(0 -867)" gradientUnits="userSpaceOnUse">
            <stop offset="0" stop-color="#a5adba" />
            <stop offset="1" stop-color="#c1c7d0" />
        </linearGradient>
    </defs>
    <title>2 Factor authentication</title>
    <g class="cls-1">
        <g id="Layer_2" data-name="Layer 2">
            <g id="Objects">
                <g id="Layer_2-2" data-name="Layer 2">
                    <g id="Layer_1-2" data-name="Layer 1-2">
                        <rect class="cls-2" x="124.32" y="26.19" width="52.37" height="59.05" />
                        <circle class="cls-3" cx="150.51" cy="26.19" r="26.19" />
                        <path class="cls-4" d="M145.68,36.4l-8.45-8.91a1,1,0,0,1,0-1.41h0L139.48,24a1,1,0,0,1,1.41,0h0l5.6,5.91,14.66-14a1,1,0,0,1,1.41,0h0l2.13,2.24a1,1,0,0,1,0,1.41h0l-17.6,16.76A1,1,0,0,1,145.68,36.4Z" />
                        <path class="cls-5" d="M246.66,77.12h-5.77a7.21,7.21,0,0,1,7.21,7.21h0v121H0a7.52,7.52,0,0,0,7.52,7.52H246.94a6.93,6.93,0,0,0,6.93-6.93V84.33A7.21,7.21,0,0,0,246.66,77.12Z" />
                        <path class="cls-6" d="M248.1,205.34v-121a7.21,7.21,0,0,0-7.21-7.21H61.16A7.21,7.21,0,0,0,54,84.33v121Z" />
                        <rect id="_Rectangle_2" data-name=" Rectangle 2" class="cls-7" x="65.5" y="88.67" width="171.05" height="104.57" />
                        <rect class="cls-8" x="65.5" y="88.67" width="171.05" height="104.57" />
                        <rect class="cls-9" x="80.54" y="162.82" width="20.32" height="13.57" />
                        <rect class="cls-9" x="83.29" y="88.67" width="20.32" height="13.57" />
                        <rect class="cls-9" x="199.19" y="88.67" width="20.32" height="13.57" />
                        <rect class="cls-9" x="70.38" y="179.02" width="20.32" height="13.57" />
                        <rect class="cls-9" x="192.84" y="132.11" width="20.32" height="13.57" />
                        <rect class="cls-9" x="206.32" y="148.31" width="20.32" height="13.57" />
                        <rect class="cls-9" x="219.51" y="179.66" width="17.04" height="13.57" />
                        <rect class="cls-9" x="182.67" y="148.31" width="20.32" height="13.57" />
                        <rect id="_Rectangle_3" data-name=" Rectangle 3" class="cls-10" x="17.51" y="102.35" width="59.6" height="102.99" rx="4.38" ry="4.38" />
                        <rect id="_Rectangle_4" data-name=" Rectangle 4" class="cls-11" x="14.54" y="102.35" width="59.6" height="102.99" rx="4.38" ry="4.38" />
                        <rect id="_Rectangle_5" data-name=" Rectangle 5" class="cls-12" x="19.55" y="108.36" width="49.58" height="81.64" rx="1.19" ry="1.19" />
                        <path class="cls-13" d="M44.34,202.71a5,5,0,1,1,5-5A5,5,0,0,1,44.34,202.71Zm0-8a3,3,0,1,0,3,3A3,3,0,0,0,44.34,194.71Z" />
                        <circle class="cls-8" cx="42.71" cy="173.49" r="6" />
                        <path class="cls-9" d="M45.13,162.94V131.83a2.42,2.42,0,1,0-4.83-.31,1.61,1.61,0,0,0,0,.31v4.54H32.64a2.42,2.42,0,1,0-.31,4.83,1.61,1.61,0,0,0,.31,0h7.65v3H32.64a2.42,2.42,0,1,0-.31,4.83h8v13.9a10.83,10.83,0,1,0,4.83,0ZM42.71,179.5a6,6,0,1,1,6-6A6,6,0,0,1,42.71,179.5Z" />
                        <path class="cls-14" d="M47.23,159.19V128.07a2.42,2.42,0,0,0-4.83,0v4.55H34.75a2.42,2.42,0,0,0,0,4.83H42.4v3H34.75a2.42,2.42,0,0,0-.31,4.83h8v13.9a10.83,10.83,0,1,0,4.83,0Zm-2.41,16.55a6,6,0,1,1,6-6A6,6,0,0,1,44.82,175.74Z" />
                        <path class="cls-15" d="M113.82,108.05h64a8.15,8.15,0,0,1,8.18,8.12h0v32a40.16,40.16,0,0,1-40.16,40.16h0a40.16,40.16,0,0,1-40.16-40.16h0v-32a8.15,8.15,0,0,1,8.15-8.15h0Z" />
                        <path class="cls-16" d="M122,103.58h64a8.15,8.15,0,0,1,8.15,8.15v32A40.16,40.16,0,0,1,154,183.9h0a40.16,40.16,0,0,1-40.16-40.16h0v-32a8.15,8.15,0,0,1,8.15-8.15h0Z" />
                        <path class="cls-17" d="M117.44,103.58h64a8.15,8.15,0,0,1,8.15,8.15v32a40.16,40.16,0,0,1-40.16,40.16h0a40.16,40.16,0,0,1-40.16-40.16h0v-32a8.15,8.15,0,0,1,8.15-8.15h0Z" />
                        <path class="cls-18" d="M149.45,178.38h0a34.69,34.69,0,0,1-34.6-34.6V113.89a4.77,4.77,0,0,1,4.75-4.76h59.7a4.77,4.77,0,0,1,4.75,4.76v29.85A34.68,34.68,0,0,1,149.45,178.38ZM179.3,111.9H119.6a2,2,0,0,0-2,2v29.89a31.83,31.83,0,1,0,63.66,0V113.89A2,2,0,0,0,179.3,111.9Z" />
                        <path id="_Clipping_Path_2" data-name=" Clipping Path 2" class="cls-19" d="M160.11,134.66a10.66,10.66,0,1,0-18,7.74,3.66,3.66,0,0,1,1.07,3.68l-1.9,6.58a2.72,2.72,0,0,0,1.86,3.36,2.78,2.78,0,0,0,.75.11H155a2.72,2.72,0,0,0,2.72-2.72,2.67,2.67,0,0,0-.11-.75l-1.9-6.55a3.69,3.69,0,0,1,1.07-3.71A10.6,10.6,0,0,0,160.11,134.66Z" />
                        <path class="cls-20" d="M145.7,156.08h9.79a2.71,2.71,0,0,0,2.18-3.15,1.31,1.31,0,0,0-.06-.27l-1.9-6.55a3.69,3.69,0,0,1,1.07-3.71,10.65,10.65,0,0,0-4.61-18,10.65,10.65,0,0,0-4.63,18,3.66,3.66,0,0,1,1.07,3.68Z" />
                        <path class="cls-8" d="M160.11,134.66a10.66,10.66,0,1,0-18,7.74,3.66,3.66,0,0,1,1.07,3.68l-1.9,6.58a2.72,2.72,0,0,0,1.86,3.36,2.78,2.78,0,0,0,.75.11H155a2.72,2.72,0,0,0,2.72-2.72,2.67,2.67,0,0,0-.11-.75l-1.9-6.55a3.69,3.69,0,0,1,1.07-3.71A10.6,10.6,0,0,0,160.11,134.66Z" />
                        <path class="cls-21" d="M38,122.81a1,1,0,0,1-.73-.3l-3.5-3.5a1,1,0,1,1,1.46-1.46l3.5,3.5a1,1,0,0,1-.73,1.76Z" />
                        <path class="cls-21" d="M44.61,119.86a1,1,0,0,1-1-1v-5a1,1,0,0,1,2.06,0v5A1,1,0,0,1,44.61,119.86Z" />
                        <path class="cls-21" d="M51.33,122.5a1,1,0,0,1-.73-1.76l3.5-3.5a1,1,0,0,1,1.46,1.46l-3.5,3.5A1,1,0,0,1,51.33,122.5Z" />
                    </g>
                </g>
            </g>
        </g>
    </g>
</svg>