<?xml version="1.0" encoding="utf-8"?>
<!-- Generator: Adobe Illustrator 16.0.0, SVG Export Plug-In . SVG Version: 6.00 Build 0)  -->
<!DOCTYPE svg PUBLIC "-//W3C//DTD SVG 1.1//EN" "http://www.w3.org/Graphics/SVG/1.1/DTD/svg11.dtd">
<svg version="1.1" id="Layer_1" xmlns="http://www.w3.org/2000/svg" xmlns:xlink="http://www.w3.org/1999/xlink" x="0px" y="0px"
	 width="450.289px" height="495.521px" viewBox="0 0 450.289 495.521" enable-background="new 0 0 450.289 495.521"
	 xml:space="preserve">
<g>
	<defs>
		<rect id="SVGID_1_" width="450.289" height="495.521"/>
	</defs>
	<clipPath id="SVGID_2_">
		<use xlink:href="#SVGID_1_"  overflow="visible"/>
	</clipPath>
	<path clip-path="url(#SVGID_2_)" d="M422.171,331.634L201.555,111.019c-24.994-24.994-65.518-24.994-90.512,0
		s-24.994,65.518,0,90.512l192.336,192.336l11.312-11.32L122.354,190.218c-18.747-18.747-18.747-49.141,0-67.888
		s49.141-18.747,67.888,0l220.615,220.617c31.245,31.244,31.245,81.898,0,113.143c-31.243,31.244-81.898,31.244-113.143,0
		L48.818,207.194c-43.741-43.741-43.741-114.659,0-158.4c43.741-43.741,114.659-43.741,158.4,0L399.547,241.13l11.311-11.312
		L218.522,37.482c-49.999-49.986-131.054-49.975-181.04,0.024c-49.986,49.999-49.975,131.054,0.024,181.04l248.895,248.857
		c37.492,37.489,98.278,37.489,135.77,0C459.661,429.911,459.661,369.125,422.171,331.634"/>
</g>
</svg>
