<?xml version="1.0" encoding="utf-8"?>
<!-- Generator: Adobe Illustrator 16.0.0, SVG Export Plug-In . SVG Version: 6.00 Build 0)  -->
<!DOCTYPE svg PUBLIC "-//W3C//DTD SVG 1.1//EN" "http://www.w3.org/Graphics/SVG/1.1/DTD/svg11.dtd">
<svg version="1.1" id="Layer_1" xmlns="http://www.w3.org/2000/svg" xmlns:xlink="http://www.w3.org/1999/xlink" x="0px" y="0px"
	 width="512.002px" height="440.131px" viewBox="0 0 512.002 440.131" enable-background="new 0 0 512.002 440.131"
	 xml:space="preserve">
<g>
	<defs>
		<rect id="SVGID_1_" width="512.002" height="440.131"/>
	</defs>
	<clipPath id="SVGID_2_">
		<use xlink:href="#SVGID_1_"  overflow="visible"/>
	</clipPath>
	<path clip-path="url(#SVGID_2_)" fill="#797979" d="M324.104,120.217H76.525l91.95-91.949L140.208,0L0,140.206l140.207,140.207
		l28.268-28.269l-91.949-91.949h247.58c81.561,0,147.918,66.356,147.918,147.917c0,38.36-19.399,70.958-35.672,91.548
		l-12.394,15.683l31.367,24.789l12.393-15.684c20.202-25.563,44.284-66.497,44.284-116.336
		C511.999,204.506,427.709,120.217,324.104,120.217"/>
</g>
</svg>
