<?xml version="1.0" encoding="utf-8"?>
<!-- Generator: Adobe Illustrator 16.0.0, SVG Export Plug-In . SVG Version: 6.00 Build 0)  -->
<!DOCTYPE svg PUBLIC "-//W3C//DTD SVG 1.1//EN" "http://www.w3.org/Graphics/SVG/1.1/DTD/svg11.dtd">
<svg version="1.1" id="Layer_1" xmlns="http://www.w3.org/2000/svg" xmlns:xlink="http://www.w3.org/1999/xlink" x="0px" y="0px"
	 width="512px" height="512px" viewBox="0 0 512 512" enable-background="new 0 0 512 512" xml:space="preserve">
<g>
	<defs>
		<rect id="SVGID_1_" width="512" height="512"/>
	</defs>
	<clipPath id="SVGID_2_">
		<use xlink:href="#SVGID_1_"  overflow="visible"/>
	</clipPath>
	<path clip-path="url(#SVGID_2_)" fill="#4D4D4D" d="M497,312.888v-22.302c0-4.143-3.358-7.5-7.5-7.5s-7.5,3.357-7.5,7.5v22.296h-72
		V246.11c0-10.052-8.178-18.23-18.23-18.23h-32.96v-72H422.2c32.974,0,59.8,26.826,59.8,59.8v39.906c0,4.142,3.358,7.5,7.5,7.5
		s7.5-3.358,7.5-7.5V215.68c0-41.245-33.555-74.8-74.8-74.8h-65.29c-4.946-14.932-19.031-25.739-35.601-25.739h-24.868V86.737
		c10.2-0.45,18.652-7.723,20.902-17.357H392.5c14.089,0.062,26-11.889,26-26c0-14.336-11.664-26-26-26h-75.157
		C315.019,7.433,306.083,0,295.438,0h-48.875c-10.645,0-19.581,7.433-21.905,17.38H149.5c-14.231-0.076-26,11.817-26,26
		c0,14.336,11.664,26,26,26h75.156c2.25,9.634,10.702,16.907,20.903,17.357v28.404H220.69c-16.57,0-30.654,10.807-35.6,25.739
		h-56.38c-3.096-8.729-11.432-14.999-21.209-14.999s-18.113,6.27-21.209,14.999H7.5c-4.142,0-7.5,3.358-7.5,7.5s3.358,7.5,7.5,7.5
		H85v72H7.5c-4.142,0-7.5,3.358-7.5,7.5s3.358,7.5,7.5,7.5h78.79c3.096,8.73,11.432,15.001,21.21,15.001s18.115-6.271,21.21-15.001
		h56.378c4.945,14.935,19.03,25.742,35.601,25.742h12.681c4.142,0,7.5-3.357,7.5-7.5c0-4.142-3.358-7.5-7.5-7.5h-12.68
		c-11.23,0-20.563-8.27-22.233-19.039c-0.003-0.028-0.009-0.054-0.012-0.081c0.305-1.379-0.304-82.628,0.002-85.259
		c0.002-0.016,0.005-0.031,0.007-0.047c1.663-10.777,11.001-19.055,22.236-19.055h100.62c11.236,0,20.573,8.278,22.236,19.055
		c0.002,0.016,0.005,0.031,0.007,0.047c1.161,9.98,1.014,76.513,0.002,85.259c-0.003,0.027-0.01,0.054-0.012,0.081
		c-1.67,10.769-11.003,19.039-22.233,19.039h-52.938c-4.143,0-7.5,3.358-7.5,7.5c0,4.143,3.357,7.5,7.5,7.5h52.938
		c16.571,0,30.656-10.808,35.602-25.742h34.858c1.781,0,3.23,1.449,3.23,3.23v66.778c-8.282,0.065-15,6.817-15,15.113v14.761
		c0,8.337,6.783,15.12,15.12,15.12h101.76c8.337,0,15.12-6.783,15.12-15.12v-14.761C512,319.705,505.282,312.953,497,312.888
		 M317.938,32.38H392.5c6.065,0,11,4.935,11,11c0,5.952-5.022,11.03-11,11h-74.563V32.38z M224.062,54.38H149.5
		c-6.065,0-11-4.935-11-11c0-5.986,5.005-11.027,11-11h74.562V54.38z M115,235.381c0,4.136-3.364,7.5-7.5,7.5s-7.5-3.364-7.5-7.5
		v-87c0-4.136,3.364-7.5,7.5-7.5s7.5,3.364,7.5,7.5V235.381z M183.19,227.88H130v-72h53.19V227.88z M281.441,115.141h-20.884V86.763
		h20.884V115.141z M246.562,71.763c-4.136,0-7.5-3.364-7.5-7.5V22.5c0-4.136,3.364-7.5,7.5-7.5h48.875c4.137,0,7.5,3.364,7.5,7.5
		v41.763c0,4.136-3.363,7.5-7.5,7.5H246.562z M497,342.762c0,0.066-0.054,0.12-0.12,0.12H395.12c-0.066,0-0.12-0.054-0.12-0.12
		v-14.761c0-0.065,0.054-0.119,0.12-0.119h101.76c0.066,0,0.12,0.054,0.12,0.119V342.762z M453.378,383.832
		c-4.069-4.021-10.688-4.021-14.755-0.002c-14.16,13.987-47.095,49.169-47.095,73.717C391.528,487.572,415.964,512,446,512
		s54.472-24.428,54.472-54.453C500.472,432.999,467.537,397.817,453.378,383.832 M446,497c-21.765,0-39.472-17.698-39.472-39.453
		c0-9.324,10.415-30.446,39.472-59.881c29.06,29.436,39.472,50.556,39.472,59.881C485.472,479.302,467.765,497,446,497"/>
</g>
</svg>
